G04 #@! TF.GenerationSoftware,KiCad,Pcbnew,7.0.10-7.0.10~ubuntu22.04.1*
G04 #@! TF.CreationDate,2024-02-02T19:08:37-05:00*
G04 #@! TF.ProjectId,ao_audio_mixer_panel,616f5f61-7564-4696-9f5f-6d697865725f,rev?*
G04 #@! TF.SameCoordinates,Original*
G04 #@! TF.FileFunction,Copper,L2,Bot*
G04 #@! TF.FilePolarity,Positive*
%FSLAX46Y46*%
G04 Gerber Fmt 4.6, Leading zero omitted, Abs format (unit mm)*
G04 Created by KiCad (PCBNEW 7.0.10-7.0.10~ubuntu22.04.1) date 2024-02-02 19:08:37*
%MOMM*%
%LPD*%
G01*
G04 APERTURE LIST*
G04 #@! TA.AperFunction,ComponentPad*
%ADD10C,14.000000*%
G04 #@! TD*
G04 #@! TA.AperFunction,ComponentPad*
%ADD11O,6.800000X4.000000*%
G04 #@! TD*
G04 APERTURE END LIST*
D10*
X60000000Y-175000000D03*
X37500000Y-175000000D03*
X60000000Y-150000000D03*
X37500000Y-150000000D03*
X15000000Y-150000000D03*
D11*
X70600000Y-3000000D03*
X70600000Y-197000000D03*
X4400000Y-3000000D03*
X4400000Y-197000000D03*
G04 #@! TA.AperFunction,Conductor*
G36*
X74891621Y-70502D02*
G01*
X74938114Y-124158D01*
X74949500Y-176500D01*
X74949500Y-199823500D01*
X74929498Y-199891621D01*
X74875842Y-199938114D01*
X74823500Y-199949500D01*
X176500Y-199949500D01*
X108379Y-199929498D01*
X61886Y-199875842D01*
X50500Y-199823500D01*
X50500Y-197254001D01*
X504153Y-197254001D01*
X531550Y-197470868D01*
X531555Y-197470896D01*
X610029Y-197776533D01*
X610031Y-197776539D01*
X726207Y-198069965D01*
X878243Y-198346517D01*
X1063730Y-198601818D01*
X1063731Y-198601819D01*
X1279759Y-198831866D01*
X1279769Y-198831875D01*
X1522921Y-199033028D01*
X1522924Y-199033030D01*
X1789363Y-199202117D01*
X1789377Y-199202124D01*
X2074911Y-199336486D01*
X2074920Y-199336490D01*
X2375044Y-199434007D01*
X2375057Y-199434010D01*
X2685038Y-199493143D01*
X2685054Y-199493145D01*
X2921165Y-199507999D01*
X2921167Y-199508000D01*
X4146000Y-199508000D01*
X4146000Y-198600000D01*
X4654000Y-198600000D01*
X4654000Y-199508000D01*
X5878833Y-199508000D01*
X5878834Y-199507999D01*
X6114945Y-199493145D01*
X6114961Y-199493143D01*
X6424942Y-199434010D01*
X6424955Y-199434007D01*
X6725079Y-199336490D01*
X6725088Y-199336486D01*
X7010622Y-199202124D01*
X7010636Y-199202117D01*
X7277075Y-199033030D01*
X7277078Y-199033028D01*
X7520230Y-198831875D01*
X7520240Y-198831866D01*
X7736268Y-198601819D01*
X7736269Y-198601818D01*
X7921756Y-198346517D01*
X8073792Y-198069965D01*
X8189968Y-197776539D01*
X8189970Y-197776533D01*
X8268444Y-197470896D01*
X8268449Y-197470868D01*
X8295846Y-197254001D01*
X66704153Y-197254001D01*
X66731550Y-197470868D01*
X66731555Y-197470896D01*
X66810029Y-197776533D01*
X66810031Y-197776539D01*
X66926207Y-198069965D01*
X67078243Y-198346517D01*
X67263730Y-198601818D01*
X67263731Y-198601819D01*
X67479759Y-198831866D01*
X67479769Y-198831875D01*
X67722921Y-199033028D01*
X67722924Y-199033030D01*
X67989363Y-199202117D01*
X67989377Y-199202124D01*
X68274911Y-199336486D01*
X68274920Y-199336490D01*
X68575044Y-199434007D01*
X68575057Y-199434010D01*
X68885038Y-199493143D01*
X68885054Y-199493145D01*
X69121165Y-199507999D01*
X69121167Y-199508000D01*
X70346000Y-199508000D01*
X70346000Y-198600000D01*
X70854000Y-198600000D01*
X70854000Y-199508000D01*
X72078833Y-199508000D01*
X72078834Y-199507999D01*
X72314945Y-199493145D01*
X72314961Y-199493143D01*
X72624942Y-199434010D01*
X72624955Y-199434007D01*
X72925079Y-199336490D01*
X72925088Y-199336486D01*
X73210622Y-199202124D01*
X73210636Y-199202117D01*
X73477075Y-199033030D01*
X73477078Y-199033028D01*
X73720230Y-198831875D01*
X73720240Y-198831866D01*
X73936268Y-198601819D01*
X73936269Y-198601818D01*
X74121756Y-198346517D01*
X74273792Y-198069965D01*
X74389968Y-197776539D01*
X74389970Y-197776533D01*
X74468444Y-197470896D01*
X74468449Y-197470868D01*
X74495846Y-197254001D01*
X74495846Y-197254000D01*
X73584484Y-197254000D01*
X73585188Y-197251069D01*
X73604948Y-197000000D01*
X73585188Y-196748931D01*
X73584484Y-196746000D01*
X74495846Y-196746000D01*
X74495846Y-196745998D01*
X74468449Y-196529131D01*
X74468444Y-196529103D01*
X74389970Y-196223466D01*
X74389968Y-196223460D01*
X74273792Y-195930034D01*
X74121756Y-195653482D01*
X73936269Y-195398181D01*
X73936268Y-195398180D01*
X73720240Y-195168133D01*
X73720230Y-195168124D01*
X73477078Y-194966971D01*
X73477075Y-194966969D01*
X73210636Y-194797882D01*
X73210622Y-194797875D01*
X72925088Y-194663513D01*
X72925079Y-194663509D01*
X72624955Y-194565992D01*
X72624942Y-194565989D01*
X72314961Y-194506856D01*
X72314945Y-194506854D01*
X72078834Y-194492000D01*
X70854000Y-194492000D01*
X70854000Y-195400000D01*
X70346000Y-195400000D01*
X70346000Y-194492000D01*
X69121166Y-194492000D01*
X68885054Y-194506854D01*
X68885038Y-194506856D01*
X68575057Y-194565989D01*
X68575044Y-194565992D01*
X68274920Y-194663509D01*
X68274911Y-194663513D01*
X67989377Y-194797875D01*
X67989363Y-194797882D01*
X67722924Y-194966969D01*
X67722921Y-194966971D01*
X67479769Y-195168124D01*
X67479759Y-195168133D01*
X67263731Y-195398180D01*
X67263730Y-195398181D01*
X67078243Y-195653482D01*
X66926207Y-195930034D01*
X66810031Y-196223460D01*
X66810029Y-196223466D01*
X66731555Y-196529103D01*
X66731550Y-196529131D01*
X66704153Y-196745998D01*
X66704154Y-196746000D01*
X67615516Y-196746000D01*
X67614812Y-196748931D01*
X67595052Y-197000000D01*
X67614812Y-197251069D01*
X67615516Y-197254000D01*
X66704154Y-197254000D01*
X66704153Y-197254001D01*
X8295846Y-197254001D01*
X8295846Y-197254000D01*
X7384484Y-197254000D01*
X7385188Y-197251069D01*
X7404948Y-197000000D01*
X7385188Y-196748931D01*
X7384484Y-196746000D01*
X8295846Y-196746000D01*
X8295846Y-196745998D01*
X8268449Y-196529131D01*
X8268444Y-196529103D01*
X8189970Y-196223466D01*
X8189968Y-196223460D01*
X8073792Y-195930034D01*
X7921756Y-195653482D01*
X7736269Y-195398181D01*
X7736268Y-195398180D01*
X7520240Y-195168133D01*
X7520230Y-195168124D01*
X7277078Y-194966971D01*
X7277075Y-194966969D01*
X7010636Y-194797882D01*
X7010622Y-194797875D01*
X6725088Y-194663513D01*
X6725079Y-194663509D01*
X6424955Y-194565992D01*
X6424942Y-194565989D01*
X6114961Y-194506856D01*
X6114945Y-194506854D01*
X5878834Y-194492000D01*
X4654000Y-194492000D01*
X4654000Y-195400000D01*
X4146000Y-195400000D01*
X4146000Y-194492000D01*
X2921166Y-194492000D01*
X2685054Y-194506854D01*
X2685038Y-194506856D01*
X2375057Y-194565989D01*
X2375044Y-194565992D01*
X2074920Y-194663509D01*
X2074911Y-194663513D01*
X1789377Y-194797875D01*
X1789363Y-194797882D01*
X1522924Y-194966969D01*
X1522921Y-194966971D01*
X1279769Y-195168124D01*
X1279759Y-195168133D01*
X1063731Y-195398180D01*
X1063730Y-195398181D01*
X878243Y-195653482D01*
X726207Y-195930034D01*
X610031Y-196223460D01*
X610029Y-196223466D01*
X531555Y-196529103D01*
X531550Y-196529131D01*
X504153Y-196745998D01*
X504154Y-196746000D01*
X1415516Y-196746000D01*
X1414812Y-196748931D01*
X1395052Y-197000000D01*
X1414812Y-197251069D01*
X1415516Y-197254000D01*
X504154Y-197254000D01*
X504153Y-197254001D01*
X50500Y-197254001D01*
X50500Y-175000000D01*
X29986988Y-175000000D01*
X30007030Y-175548414D01*
X30007031Y-175548420D01*
X30067050Y-176093896D01*
X30067053Y-176093919D01*
X30166727Y-176633543D01*
X30166730Y-176633557D01*
X30305538Y-177164504D01*
X30482720Y-177683863D01*
X30482731Y-177683893D01*
X30697362Y-178188958D01*
X30697363Y-178188961D01*
X30948278Y-178676995D01*
X30948284Y-178677006D01*
X31234165Y-179145440D01*
X31234167Y-179145444D01*
X31553476Y-179591755D01*
X31553483Y-179591763D01*
X31904512Y-180013567D01*
X31904527Y-180013584D01*
X32013831Y-180126956D01*
X32013832Y-180126957D01*
X33788943Y-178351845D01*
X33882383Y-178458796D01*
X34147210Y-178711997D01*
X32372518Y-180486689D01*
X32372518Y-180486691D01*
X32694126Y-180774852D01*
X33128491Y-181110258D01*
X33586171Y-181413056D01*
X33586179Y-181413061D01*
X34064736Y-181681640D01*
X34561634Y-181914575D01*
X35074194Y-182110612D01*
X35074206Y-182110616D01*
X35599703Y-182268715D01*
X36135365Y-182388038D01*
X36678284Y-182467939D01*
X36678303Y-182467941D01*
X37225611Y-182508000D01*
X37774389Y-182508000D01*
X38321696Y-182467941D01*
X38321715Y-182467939D01*
X38864634Y-182388038D01*
X39400296Y-182268715D01*
X39925793Y-182110616D01*
X39925805Y-182110612D01*
X40438365Y-181914575D01*
X40935263Y-181681640D01*
X41413820Y-181413061D01*
X41413828Y-181413056D01*
X41871508Y-181110258D01*
X42305873Y-180774852D01*
X42627480Y-180486691D01*
X42627480Y-180486689D01*
X40852789Y-178711998D01*
X41117617Y-178458796D01*
X41211055Y-178351846D01*
X42986166Y-180126957D01*
X42986167Y-180126956D01*
X43095472Y-180013583D01*
X43095499Y-180013552D01*
X43446516Y-179591763D01*
X43446523Y-179591755D01*
X43765832Y-179145444D01*
X43765834Y-179145440D01*
X44051715Y-178677006D01*
X44051721Y-178676995D01*
X44302636Y-178188961D01*
X44302637Y-178188958D01*
X44517268Y-177683893D01*
X44517279Y-177683863D01*
X44694461Y-177164504D01*
X44833269Y-176633557D01*
X44833272Y-176633543D01*
X44932946Y-176093919D01*
X44932949Y-176093896D01*
X44992968Y-175548420D01*
X44992969Y-175548414D01*
X45013011Y-175000000D01*
X52486988Y-175000000D01*
X52507030Y-175548414D01*
X52507031Y-175548420D01*
X52567050Y-176093896D01*
X52567053Y-176093919D01*
X52666727Y-176633543D01*
X52666730Y-176633557D01*
X52805538Y-177164504D01*
X52982720Y-177683863D01*
X52982731Y-177683893D01*
X53197362Y-178188958D01*
X53197363Y-178188961D01*
X53448278Y-178676995D01*
X53448284Y-178677006D01*
X53734165Y-179145440D01*
X53734167Y-179145444D01*
X54053476Y-179591755D01*
X54053483Y-179591763D01*
X54404512Y-180013567D01*
X54404527Y-180013584D01*
X54513831Y-180126956D01*
X54513832Y-180126957D01*
X56288943Y-178351845D01*
X56382383Y-178458796D01*
X56647210Y-178711997D01*
X54872518Y-180486689D01*
X54872518Y-180486691D01*
X55194126Y-180774852D01*
X55628491Y-181110258D01*
X56086171Y-181413056D01*
X56086179Y-181413061D01*
X56564736Y-181681640D01*
X57061634Y-181914575D01*
X57574194Y-182110612D01*
X57574206Y-182110616D01*
X58099703Y-182268715D01*
X58635365Y-182388038D01*
X59178284Y-182467939D01*
X59178303Y-182467941D01*
X59725611Y-182508000D01*
X60274389Y-182508000D01*
X60821696Y-182467941D01*
X60821715Y-182467939D01*
X61364634Y-182388038D01*
X61900296Y-182268715D01*
X62425793Y-182110616D01*
X62425805Y-182110612D01*
X62938365Y-181914575D01*
X63435263Y-181681640D01*
X63913820Y-181413061D01*
X63913828Y-181413056D01*
X64371508Y-181110258D01*
X64805873Y-180774852D01*
X65127480Y-180486691D01*
X65127480Y-180486689D01*
X63352789Y-178711998D01*
X63617617Y-178458796D01*
X63711055Y-178351846D01*
X65486166Y-180126957D01*
X65486167Y-180126956D01*
X65595472Y-180013583D01*
X65595499Y-180013552D01*
X65946516Y-179591763D01*
X65946523Y-179591755D01*
X66265832Y-179145444D01*
X66265834Y-179145440D01*
X66551715Y-178677006D01*
X66551721Y-178676995D01*
X66802636Y-178188961D01*
X66802637Y-178188958D01*
X67017268Y-177683893D01*
X67017279Y-177683863D01*
X67194461Y-177164504D01*
X67333269Y-176633557D01*
X67333272Y-176633543D01*
X67432946Y-176093919D01*
X67432949Y-176093896D01*
X67492968Y-175548420D01*
X67492969Y-175548414D01*
X67513011Y-175000000D01*
X67492969Y-174451585D01*
X67492968Y-174451579D01*
X67432949Y-173906103D01*
X67432946Y-173906080D01*
X67333272Y-173366456D01*
X67333269Y-173366442D01*
X67194461Y-172835495D01*
X67017279Y-172316136D01*
X67017268Y-172316106D01*
X66802637Y-171811041D01*
X66802636Y-171811038D01*
X66551721Y-171323004D01*
X66551715Y-171322993D01*
X66265834Y-170854559D01*
X66265832Y-170854555D01*
X65946523Y-170408244D01*
X65946516Y-170408236D01*
X65595487Y-169986432D01*
X65595472Y-169986415D01*
X65486167Y-169873042D01*
X65486166Y-169873041D01*
X63711055Y-171648152D01*
X63617617Y-171541204D01*
X63352788Y-171288001D01*
X65127480Y-169513309D01*
X65127480Y-169513307D01*
X64805873Y-169225147D01*
X64371508Y-168889741D01*
X63913828Y-168586943D01*
X63913820Y-168586938D01*
X63435263Y-168318359D01*
X62938365Y-168085424D01*
X62425805Y-167889387D01*
X62425793Y-167889383D01*
X61900296Y-167731284D01*
X61364634Y-167611961D01*
X60821715Y-167532060D01*
X60821696Y-167532058D01*
X60274389Y-167492000D01*
X59725611Y-167492000D01*
X59178303Y-167532058D01*
X59178284Y-167532060D01*
X58635365Y-167611961D01*
X58099703Y-167731284D01*
X57574206Y-167889383D01*
X57574194Y-167889387D01*
X57061634Y-168085424D01*
X56564736Y-168318359D01*
X56086179Y-168586938D01*
X56086171Y-168586943D01*
X55628491Y-168889741D01*
X55194126Y-169225147D01*
X54872518Y-169513307D01*
X54872518Y-169513309D01*
X56647210Y-171288001D01*
X56382383Y-171541204D01*
X56288944Y-171648153D01*
X54513832Y-169873041D01*
X54513831Y-169873042D01*
X54404527Y-169986416D01*
X54404512Y-169986432D01*
X54053483Y-170408236D01*
X54053476Y-170408244D01*
X53734167Y-170854555D01*
X53734165Y-170854559D01*
X53448284Y-171322993D01*
X53448278Y-171323004D01*
X53197363Y-171811038D01*
X53197362Y-171811041D01*
X52982731Y-172316106D01*
X52982720Y-172316136D01*
X52805538Y-172835495D01*
X52666730Y-173366442D01*
X52666727Y-173366456D01*
X52567053Y-173906080D01*
X52567050Y-173906103D01*
X52507031Y-174451579D01*
X52507030Y-174451585D01*
X52486988Y-175000000D01*
X45013011Y-175000000D01*
X44992969Y-174451585D01*
X44992968Y-174451579D01*
X44932949Y-173906103D01*
X44932946Y-173906080D01*
X44833272Y-173366456D01*
X44833269Y-173366442D01*
X44694461Y-172835495D01*
X44517279Y-172316136D01*
X44517268Y-172316106D01*
X44302637Y-171811041D01*
X44302636Y-171811038D01*
X44051721Y-171323004D01*
X44051715Y-171322993D01*
X43765834Y-170854559D01*
X43765832Y-170854555D01*
X43446523Y-170408244D01*
X43446516Y-170408236D01*
X43095487Y-169986432D01*
X43095472Y-169986415D01*
X42986167Y-169873042D01*
X42986166Y-169873041D01*
X41211055Y-171648152D01*
X41117617Y-171541204D01*
X40852788Y-171288001D01*
X42627480Y-169513309D01*
X42627480Y-169513307D01*
X42305873Y-169225147D01*
X41871508Y-168889741D01*
X41413828Y-168586943D01*
X41413820Y-168586938D01*
X40935263Y-168318359D01*
X40438365Y-168085424D01*
X39925805Y-167889387D01*
X39925793Y-167889383D01*
X39400296Y-167731284D01*
X38864634Y-167611961D01*
X38321715Y-167532060D01*
X38321696Y-167532058D01*
X37774389Y-167492000D01*
X37225611Y-167492000D01*
X36678303Y-167532058D01*
X36678284Y-167532060D01*
X36135365Y-167611961D01*
X35599703Y-167731284D01*
X35074206Y-167889383D01*
X35074194Y-167889387D01*
X34561634Y-168085424D01*
X34064736Y-168318359D01*
X33586179Y-168586938D01*
X33586171Y-168586943D01*
X33128491Y-168889741D01*
X32694126Y-169225147D01*
X32372518Y-169513307D01*
X32372518Y-169513309D01*
X34147210Y-171288001D01*
X33882383Y-171541204D01*
X33788944Y-171648153D01*
X32013832Y-169873041D01*
X32013831Y-169873042D01*
X31904527Y-169986416D01*
X31904512Y-169986432D01*
X31553483Y-170408236D01*
X31553476Y-170408244D01*
X31234167Y-170854555D01*
X31234165Y-170854559D01*
X30948284Y-171322993D01*
X30948278Y-171323004D01*
X30697363Y-171811038D01*
X30697362Y-171811041D01*
X30482731Y-172316106D01*
X30482720Y-172316136D01*
X30305538Y-172835495D01*
X30166730Y-173366442D01*
X30166727Y-173366456D01*
X30067053Y-173906080D01*
X30067050Y-173906103D01*
X30007031Y-174451579D01*
X30007030Y-174451585D01*
X29986988Y-175000000D01*
X50500Y-175000000D01*
X50500Y-150000000D01*
X7486988Y-150000000D01*
X7507030Y-150548414D01*
X7507031Y-150548420D01*
X7567050Y-151093896D01*
X7567053Y-151093919D01*
X7666727Y-151633543D01*
X7666730Y-151633557D01*
X7805538Y-152164504D01*
X7982720Y-152683863D01*
X7982731Y-152683893D01*
X8197362Y-153188958D01*
X8197363Y-153188961D01*
X8448278Y-153676995D01*
X8448284Y-153677006D01*
X8734165Y-154145440D01*
X8734167Y-154145444D01*
X9053476Y-154591755D01*
X9053483Y-154591763D01*
X9404512Y-155013567D01*
X9404527Y-155013584D01*
X9513831Y-155126956D01*
X9513832Y-155126957D01*
X11288943Y-153351845D01*
X11382383Y-153458796D01*
X11647210Y-153711997D01*
X9872518Y-155486689D01*
X9872518Y-155486691D01*
X10194126Y-155774852D01*
X10628491Y-156110258D01*
X11086171Y-156413056D01*
X11086179Y-156413061D01*
X11564736Y-156681640D01*
X12061634Y-156914575D01*
X12574194Y-157110612D01*
X12574206Y-157110616D01*
X13099703Y-157268715D01*
X13635365Y-157388038D01*
X14178284Y-157467939D01*
X14178303Y-157467941D01*
X14725611Y-157508000D01*
X15274389Y-157508000D01*
X15821696Y-157467941D01*
X15821715Y-157467939D01*
X16364634Y-157388038D01*
X16900296Y-157268715D01*
X17425793Y-157110616D01*
X17425805Y-157110612D01*
X17938365Y-156914575D01*
X18435263Y-156681640D01*
X18913820Y-156413061D01*
X18913828Y-156413056D01*
X19371508Y-156110258D01*
X19805873Y-155774852D01*
X20127480Y-155486691D01*
X20127480Y-155486689D01*
X18352789Y-153711998D01*
X18617617Y-153458796D01*
X18711055Y-153351846D01*
X20486166Y-155126957D01*
X20486167Y-155126956D01*
X20595472Y-155013583D01*
X20595499Y-155013552D01*
X20946516Y-154591763D01*
X20946523Y-154591755D01*
X21265832Y-154145444D01*
X21265834Y-154145440D01*
X21551715Y-153677006D01*
X21551721Y-153676995D01*
X21802636Y-153188961D01*
X21802637Y-153188958D01*
X22017268Y-152683893D01*
X22017279Y-152683863D01*
X22194461Y-152164504D01*
X22333269Y-151633557D01*
X22333272Y-151633543D01*
X22432946Y-151093919D01*
X22432949Y-151093896D01*
X22492968Y-150548420D01*
X22492969Y-150548414D01*
X22513011Y-150000000D01*
X29986988Y-150000000D01*
X30007030Y-150548414D01*
X30007031Y-150548420D01*
X30067050Y-151093896D01*
X30067053Y-151093919D01*
X30166727Y-151633543D01*
X30166730Y-151633557D01*
X30305538Y-152164504D01*
X30482720Y-152683863D01*
X30482731Y-152683893D01*
X30697362Y-153188958D01*
X30697363Y-153188961D01*
X30948278Y-153676995D01*
X30948284Y-153677006D01*
X31234165Y-154145440D01*
X31234167Y-154145444D01*
X31553476Y-154591755D01*
X31553483Y-154591763D01*
X31904512Y-155013567D01*
X31904527Y-155013584D01*
X32013831Y-155126956D01*
X32013832Y-155126957D01*
X33788943Y-153351845D01*
X33882383Y-153458796D01*
X34147210Y-153711997D01*
X32372518Y-155486689D01*
X32372518Y-155486691D01*
X32694126Y-155774852D01*
X33128491Y-156110258D01*
X33586171Y-156413056D01*
X33586179Y-156413061D01*
X34064736Y-156681640D01*
X34561634Y-156914575D01*
X35074194Y-157110612D01*
X35074206Y-157110616D01*
X35599703Y-157268715D01*
X36135365Y-157388038D01*
X36678284Y-157467939D01*
X36678303Y-157467941D01*
X37225611Y-157508000D01*
X37774389Y-157508000D01*
X38321696Y-157467941D01*
X38321715Y-157467939D01*
X38864634Y-157388038D01*
X39400296Y-157268715D01*
X39925793Y-157110616D01*
X39925805Y-157110612D01*
X40438365Y-156914575D01*
X40935263Y-156681640D01*
X41413820Y-156413061D01*
X41413828Y-156413056D01*
X41871508Y-156110258D01*
X42305873Y-155774852D01*
X42627480Y-155486691D01*
X42627480Y-155486689D01*
X40852789Y-153711998D01*
X41117617Y-153458796D01*
X41211055Y-153351846D01*
X42986166Y-155126957D01*
X42986167Y-155126956D01*
X43095472Y-155013583D01*
X43095499Y-155013552D01*
X43446516Y-154591763D01*
X43446523Y-154591755D01*
X43765832Y-154145444D01*
X43765834Y-154145440D01*
X44051715Y-153677006D01*
X44051721Y-153676995D01*
X44302636Y-153188961D01*
X44302637Y-153188958D01*
X44517268Y-152683893D01*
X44517279Y-152683863D01*
X44694461Y-152164504D01*
X44833269Y-151633557D01*
X44833272Y-151633543D01*
X44932946Y-151093919D01*
X44932949Y-151093896D01*
X44992968Y-150548420D01*
X44992969Y-150548414D01*
X45013011Y-150000000D01*
X52486988Y-150000000D01*
X52507030Y-150548414D01*
X52507031Y-150548420D01*
X52567050Y-151093896D01*
X52567053Y-151093919D01*
X52666727Y-151633543D01*
X52666730Y-151633557D01*
X52805538Y-152164504D01*
X52982720Y-152683863D01*
X52982731Y-152683893D01*
X53197362Y-153188958D01*
X53197363Y-153188961D01*
X53448278Y-153676995D01*
X53448284Y-153677006D01*
X53734165Y-154145440D01*
X53734167Y-154145444D01*
X54053476Y-154591755D01*
X54053483Y-154591763D01*
X54404512Y-155013567D01*
X54404527Y-155013584D01*
X54513831Y-155126956D01*
X54513832Y-155126957D01*
X56288943Y-153351845D01*
X56382383Y-153458796D01*
X56647210Y-153711997D01*
X54872518Y-155486689D01*
X54872518Y-155486691D01*
X55194126Y-155774852D01*
X55628491Y-156110258D01*
X56086171Y-156413056D01*
X56086179Y-156413061D01*
X56564736Y-156681640D01*
X57061634Y-156914575D01*
X57574194Y-157110612D01*
X57574206Y-157110616D01*
X58099703Y-157268715D01*
X58635365Y-157388038D01*
X59178284Y-157467939D01*
X59178303Y-157467941D01*
X59725611Y-157508000D01*
X60274389Y-157508000D01*
X60821696Y-157467941D01*
X60821715Y-157467939D01*
X61364634Y-157388038D01*
X61900296Y-157268715D01*
X62425793Y-157110616D01*
X62425805Y-157110612D01*
X62938365Y-156914575D01*
X63435263Y-156681640D01*
X63913820Y-156413061D01*
X63913828Y-156413056D01*
X64371508Y-156110258D01*
X64805873Y-155774852D01*
X65127480Y-155486691D01*
X65127480Y-155486689D01*
X63352789Y-153711998D01*
X63617617Y-153458796D01*
X63711055Y-153351846D01*
X65486166Y-155126957D01*
X65486167Y-155126956D01*
X65595472Y-155013583D01*
X65595499Y-155013552D01*
X65946516Y-154591763D01*
X65946523Y-154591755D01*
X66265832Y-154145444D01*
X66265834Y-154145440D01*
X66551715Y-153677006D01*
X66551721Y-153676995D01*
X66802636Y-153188961D01*
X66802637Y-153188958D01*
X67017268Y-152683893D01*
X67017279Y-152683863D01*
X67194461Y-152164504D01*
X67333269Y-151633557D01*
X67333272Y-151633543D01*
X67432946Y-151093919D01*
X67432949Y-151093896D01*
X67492968Y-150548420D01*
X67492969Y-150548414D01*
X67513011Y-150000000D01*
X67492969Y-149451585D01*
X67492968Y-149451579D01*
X67432949Y-148906103D01*
X67432946Y-148906080D01*
X67333272Y-148366456D01*
X67333269Y-148366442D01*
X67194461Y-147835495D01*
X67017279Y-147316136D01*
X67017268Y-147316106D01*
X66802637Y-146811041D01*
X66802636Y-146811038D01*
X66551721Y-146323004D01*
X66551715Y-146322993D01*
X66265834Y-145854559D01*
X66265832Y-145854555D01*
X65946523Y-145408244D01*
X65946516Y-145408236D01*
X65595487Y-144986432D01*
X65595472Y-144986415D01*
X65486167Y-144873042D01*
X65486166Y-144873041D01*
X63711055Y-146648152D01*
X63617617Y-146541204D01*
X63352788Y-146288001D01*
X65127480Y-144513309D01*
X65127480Y-144513307D01*
X64805873Y-144225147D01*
X64371508Y-143889741D01*
X63913828Y-143586943D01*
X63913820Y-143586938D01*
X63435263Y-143318359D01*
X62938365Y-143085424D01*
X62425805Y-142889387D01*
X62425793Y-142889383D01*
X61900296Y-142731284D01*
X61364634Y-142611961D01*
X60821715Y-142532060D01*
X60821696Y-142532058D01*
X60274389Y-142492000D01*
X59725611Y-142492000D01*
X59178303Y-142532058D01*
X59178284Y-142532060D01*
X58635365Y-142611961D01*
X58099703Y-142731284D01*
X57574206Y-142889383D01*
X57574194Y-142889387D01*
X57061634Y-143085424D01*
X56564736Y-143318359D01*
X56086179Y-143586938D01*
X56086171Y-143586943D01*
X55628491Y-143889741D01*
X55194126Y-144225147D01*
X54872518Y-144513307D01*
X54872518Y-144513309D01*
X56647210Y-146288001D01*
X56382383Y-146541204D01*
X56288944Y-146648153D01*
X54513832Y-144873041D01*
X54513831Y-144873042D01*
X54404527Y-144986416D01*
X54404512Y-144986432D01*
X54053483Y-145408236D01*
X54053476Y-145408244D01*
X53734167Y-145854555D01*
X53734165Y-145854559D01*
X53448284Y-146322993D01*
X53448278Y-146323004D01*
X53197363Y-146811038D01*
X53197362Y-146811041D01*
X52982731Y-147316106D01*
X52982720Y-147316136D01*
X52805538Y-147835495D01*
X52666730Y-148366442D01*
X52666727Y-148366456D01*
X52567053Y-148906080D01*
X52567050Y-148906103D01*
X52507031Y-149451579D01*
X52507030Y-149451585D01*
X52486988Y-150000000D01*
X45013011Y-150000000D01*
X44992969Y-149451585D01*
X44992968Y-149451579D01*
X44932949Y-148906103D01*
X44932946Y-148906080D01*
X44833272Y-148366456D01*
X44833269Y-148366442D01*
X44694461Y-147835495D01*
X44517279Y-147316136D01*
X44517268Y-147316106D01*
X44302637Y-146811041D01*
X44302636Y-146811038D01*
X44051721Y-146323004D01*
X44051715Y-146322993D01*
X43765834Y-145854559D01*
X43765832Y-145854555D01*
X43446523Y-145408244D01*
X43446516Y-145408236D01*
X43095487Y-144986432D01*
X43095472Y-144986415D01*
X42986167Y-144873042D01*
X42986166Y-144873041D01*
X41211055Y-146648152D01*
X41117617Y-146541204D01*
X40852788Y-146288001D01*
X42627480Y-144513309D01*
X42627480Y-144513307D01*
X42305873Y-144225147D01*
X41871508Y-143889741D01*
X41413828Y-143586943D01*
X41413820Y-143586938D01*
X40935263Y-143318359D01*
X40438365Y-143085424D01*
X39925805Y-142889387D01*
X39925793Y-142889383D01*
X39400296Y-142731284D01*
X38864634Y-142611961D01*
X38321715Y-142532060D01*
X38321696Y-142532058D01*
X37774389Y-142492000D01*
X37225611Y-142492000D01*
X36678303Y-142532058D01*
X36678284Y-142532060D01*
X36135365Y-142611961D01*
X35599703Y-142731284D01*
X35074206Y-142889383D01*
X35074194Y-142889387D01*
X34561634Y-143085424D01*
X34064736Y-143318359D01*
X33586179Y-143586938D01*
X33586171Y-143586943D01*
X33128491Y-143889741D01*
X32694126Y-144225147D01*
X32372518Y-144513307D01*
X32372518Y-144513309D01*
X34147210Y-146288001D01*
X33882383Y-146541204D01*
X33788944Y-146648153D01*
X32013832Y-144873041D01*
X32013831Y-144873042D01*
X31904527Y-144986416D01*
X31904512Y-144986432D01*
X31553483Y-145408236D01*
X31553476Y-145408244D01*
X31234167Y-145854555D01*
X31234165Y-145854559D01*
X30948284Y-146322993D01*
X30948278Y-146323004D01*
X30697363Y-146811038D01*
X30697362Y-146811041D01*
X30482731Y-147316106D01*
X30482720Y-147316136D01*
X30305538Y-147835495D01*
X30166730Y-148366442D01*
X30166727Y-148366456D01*
X30067053Y-148906080D01*
X30067050Y-148906103D01*
X30007031Y-149451579D01*
X30007030Y-149451585D01*
X29986988Y-150000000D01*
X22513011Y-150000000D01*
X22492969Y-149451585D01*
X22492968Y-149451579D01*
X22432949Y-148906103D01*
X22432946Y-148906080D01*
X22333272Y-148366456D01*
X22333269Y-148366442D01*
X22194461Y-147835495D01*
X22017279Y-147316136D01*
X22017268Y-147316106D01*
X21802637Y-146811041D01*
X21802636Y-146811038D01*
X21551721Y-146323004D01*
X21551715Y-146322993D01*
X21265834Y-145854559D01*
X21265832Y-145854555D01*
X20946523Y-145408244D01*
X20946516Y-145408236D01*
X20595487Y-144986432D01*
X20595472Y-144986415D01*
X20486167Y-144873042D01*
X20486166Y-144873041D01*
X18711055Y-146648152D01*
X18617617Y-146541204D01*
X18352788Y-146288001D01*
X20127480Y-144513309D01*
X20127480Y-144513307D01*
X19805873Y-144225147D01*
X19371508Y-143889741D01*
X18913828Y-143586943D01*
X18913820Y-143586938D01*
X18435263Y-143318359D01*
X17938365Y-143085424D01*
X17425805Y-142889387D01*
X17425793Y-142889383D01*
X16900296Y-142731284D01*
X16364634Y-142611961D01*
X15821715Y-142532060D01*
X15821696Y-142532058D01*
X15274389Y-142492000D01*
X14725611Y-142492000D01*
X14178303Y-142532058D01*
X14178284Y-142532060D01*
X13635365Y-142611961D01*
X13099703Y-142731284D01*
X12574206Y-142889383D01*
X12574194Y-142889387D01*
X12061634Y-143085424D01*
X11564736Y-143318359D01*
X11086179Y-143586938D01*
X11086171Y-143586943D01*
X10628491Y-143889741D01*
X10194126Y-144225147D01*
X9872518Y-144513307D01*
X9872518Y-144513309D01*
X11647210Y-146288001D01*
X11382383Y-146541204D01*
X11288944Y-146648153D01*
X9513832Y-144873041D01*
X9513831Y-144873042D01*
X9404527Y-144986416D01*
X9404512Y-144986432D01*
X9053483Y-145408236D01*
X9053476Y-145408244D01*
X8734167Y-145854555D01*
X8734165Y-145854559D01*
X8448284Y-146322993D01*
X8448278Y-146323004D01*
X8197363Y-146811038D01*
X8197362Y-146811041D01*
X7982731Y-147316106D01*
X7982720Y-147316136D01*
X7805538Y-147835495D01*
X7666730Y-148366442D01*
X7666727Y-148366456D01*
X7567053Y-148906080D01*
X7567050Y-148906103D01*
X7507031Y-149451579D01*
X7507030Y-149451585D01*
X7486988Y-150000000D01*
X50500Y-150000000D01*
X50500Y-125067765D01*
X5645788Y-125067765D01*
X5675412Y-125337014D01*
X5743928Y-125599090D01*
X5849869Y-125848389D01*
X5849870Y-125848390D01*
X5990982Y-126079610D01*
X6164255Y-126287820D01*
X6365998Y-126468582D01*
X6591910Y-126618044D01*
X6837176Y-126733020D01*
X7096569Y-126811060D01*
X7096572Y-126811060D01*
X7096574Y-126811061D01*
X7364557Y-126850500D01*
X7364561Y-126850500D01*
X7567631Y-126850500D01*
X7770156Y-126835677D01*
X7770160Y-126835676D01*
X7770161Y-126835676D01*
X7880665Y-126811060D01*
X8034553Y-126776780D01*
X8287558Y-126680014D01*
X8523777Y-126547441D01*
X8738177Y-126381888D01*
X8926186Y-126186881D01*
X9083799Y-125966579D01*
X9207656Y-125725675D01*
X9295118Y-125469305D01*
X9344319Y-125202933D01*
X9349259Y-125067765D01*
X65645788Y-125067765D01*
X65675412Y-125337014D01*
X65743928Y-125599090D01*
X65849869Y-125848389D01*
X65849870Y-125848390D01*
X65990982Y-126079610D01*
X66164255Y-126287820D01*
X66365998Y-126468582D01*
X66591910Y-126618044D01*
X66837176Y-126733020D01*
X67096569Y-126811060D01*
X67096572Y-126811060D01*
X67096574Y-126811061D01*
X67364557Y-126850500D01*
X67364561Y-126850500D01*
X67567631Y-126850500D01*
X67770156Y-126835677D01*
X67770160Y-126835676D01*
X67770161Y-126835676D01*
X67880665Y-126811060D01*
X68034553Y-126776780D01*
X68287558Y-126680014D01*
X68523777Y-126547441D01*
X68738177Y-126381888D01*
X68926186Y-126186881D01*
X69083799Y-125966579D01*
X69207656Y-125725675D01*
X69295118Y-125469305D01*
X69344319Y-125202933D01*
X69354212Y-124932235D01*
X69339338Y-124797058D01*
X69324587Y-124662985D01*
X69256071Y-124400909D01*
X69150130Y-124151610D01*
X69009018Y-123920390D01*
X68835745Y-123712180D01*
X68835741Y-123712177D01*
X68835740Y-123712175D01*
X68634012Y-123531427D01*
X68634002Y-123531418D01*
X68408090Y-123381956D01*
X68162824Y-123266980D01*
X68005392Y-123219615D01*
X67903425Y-123188938D01*
X67635442Y-123149500D01*
X67635439Y-123149500D01*
X67432369Y-123149500D01*
X67229839Y-123164323D01*
X67229838Y-123164323D01*
X66965456Y-123223217D01*
X66965441Y-123223222D01*
X66712441Y-123319986D01*
X66476229Y-123452555D01*
X66476225Y-123452557D01*
X66261818Y-123618116D01*
X66073815Y-123813117D01*
X66073810Y-123813123D01*
X65916203Y-124033417D01*
X65916196Y-124033427D01*
X65792343Y-124274324D01*
X65792342Y-124274327D01*
X65704883Y-124530689D01*
X65704880Y-124530702D01*
X65655681Y-124797058D01*
X65655680Y-124797069D01*
X65645788Y-125067765D01*
X9349259Y-125067765D01*
X9354212Y-124932235D01*
X9339338Y-124797058D01*
X9324587Y-124662985D01*
X9256071Y-124400909D01*
X9150130Y-124151610D01*
X9009018Y-123920390D01*
X8835745Y-123712180D01*
X8835741Y-123712177D01*
X8835740Y-123712175D01*
X8634012Y-123531427D01*
X8634002Y-123531418D01*
X8408090Y-123381956D01*
X8162824Y-123266980D01*
X8005392Y-123219615D01*
X7903425Y-123188938D01*
X7635442Y-123149500D01*
X7635439Y-123149500D01*
X7432369Y-123149500D01*
X7229839Y-123164323D01*
X7229838Y-123164323D01*
X6965456Y-123223217D01*
X6965441Y-123223222D01*
X6712441Y-123319986D01*
X6476229Y-123452555D01*
X6476225Y-123452557D01*
X6261818Y-123618116D01*
X6073815Y-123813117D01*
X6073810Y-123813123D01*
X5916203Y-124033417D01*
X5916196Y-124033427D01*
X5792343Y-124274324D01*
X5792342Y-124274327D01*
X5704883Y-124530689D01*
X5704880Y-124530702D01*
X5655681Y-124797058D01*
X5655680Y-124797069D01*
X5645788Y-125067765D01*
X50500Y-125067765D01*
X50500Y-103000000D01*
X14195339Y-103000000D01*
X14199498Y-103010040D01*
X14199499Y-103010045D01*
X14199500Y-103010045D01*
X14211348Y-103038650D01*
X14211349Y-103038651D01*
X14250000Y-103054661D01*
X14250000Y-103054660D01*
X14250002Y-103054661D01*
X14264192Y-103054661D01*
X14285110Y-103050500D01*
X15714890Y-103050500D01*
X15735808Y-103054661D01*
X15749998Y-103054661D01*
X15749999Y-103054660D01*
X15750000Y-103054661D01*
X15788651Y-103038651D01*
X15800500Y-103010045D01*
X15804661Y-103000000D01*
X29195339Y-103000000D01*
X29199498Y-103010040D01*
X29199499Y-103010045D01*
X29199500Y-103010045D01*
X29211348Y-103038650D01*
X29211349Y-103038651D01*
X29250000Y-103054661D01*
X29250000Y-103054660D01*
X29250002Y-103054661D01*
X29264192Y-103054661D01*
X29285110Y-103050500D01*
X30714890Y-103050500D01*
X30735808Y-103054661D01*
X30749998Y-103054661D01*
X30749999Y-103054660D01*
X30750000Y-103054661D01*
X30788651Y-103038651D01*
X30800500Y-103010045D01*
X30804661Y-103000000D01*
X44195339Y-103000000D01*
X44199498Y-103010040D01*
X44199499Y-103010045D01*
X44199500Y-103010045D01*
X44211348Y-103038650D01*
X44211349Y-103038651D01*
X44250000Y-103054661D01*
X44250000Y-103054660D01*
X44250002Y-103054661D01*
X44264192Y-103054661D01*
X44285110Y-103050500D01*
X45714890Y-103050500D01*
X45735808Y-103054661D01*
X45749998Y-103054661D01*
X45749999Y-103054660D01*
X45750000Y-103054661D01*
X45788651Y-103038651D01*
X45800500Y-103010045D01*
X45804661Y-103000000D01*
X59195339Y-103000000D01*
X59199498Y-103010040D01*
X59199499Y-103010045D01*
X59199500Y-103010045D01*
X59211348Y-103038650D01*
X59211349Y-103038651D01*
X59250000Y-103054661D01*
X59250000Y-103054660D01*
X59250002Y-103054661D01*
X59264192Y-103054661D01*
X59285110Y-103050500D01*
X60714890Y-103050500D01*
X60735808Y-103054661D01*
X60749998Y-103054661D01*
X60749999Y-103054660D01*
X60750000Y-103054661D01*
X60788651Y-103038651D01*
X60800500Y-103010045D01*
X60804661Y-103000000D01*
X60804660Y-102999998D01*
X60804661Y-102999998D01*
X60804661Y-102985812D01*
X60800500Y-102964892D01*
X60800500Y-37035109D01*
X60804661Y-37014193D01*
X60804661Y-37000001D01*
X60804661Y-37000000D01*
X60788651Y-36961349D01*
X60788650Y-36961348D01*
X60760045Y-36949500D01*
X60760043Y-36949499D01*
X60750000Y-36945339D01*
X60735809Y-36945339D01*
X60714891Y-36949500D01*
X59285109Y-36949500D01*
X59264191Y-36945339D01*
X59250000Y-36945339D01*
X59239957Y-36949499D01*
X59239955Y-36949500D01*
X59211349Y-36961348D01*
X59195339Y-37000001D01*
X59195339Y-37014193D01*
X59199500Y-37035109D01*
X59199500Y-102964892D01*
X59195339Y-102985812D01*
X59195339Y-103000000D01*
X45804661Y-103000000D01*
X45804660Y-102999998D01*
X45804661Y-102999998D01*
X45804661Y-102985812D01*
X45800500Y-102964892D01*
X45800500Y-37035109D01*
X45804661Y-37014193D01*
X45804661Y-37000001D01*
X45804661Y-37000000D01*
X45788651Y-36961349D01*
X45788650Y-36961348D01*
X45760045Y-36949500D01*
X45760043Y-36949499D01*
X45750000Y-36945339D01*
X45735809Y-36945339D01*
X45714891Y-36949500D01*
X44285109Y-36949500D01*
X44264191Y-36945339D01*
X44250000Y-36945339D01*
X44239957Y-36949499D01*
X44239955Y-36949500D01*
X44211349Y-36961348D01*
X44195339Y-37000001D01*
X44195339Y-37014193D01*
X44199500Y-37035109D01*
X44199500Y-102964892D01*
X44195339Y-102985812D01*
X44195339Y-103000000D01*
X30804661Y-103000000D01*
X30804660Y-102999998D01*
X30804661Y-102999998D01*
X30804661Y-102985812D01*
X30800500Y-102964892D01*
X30800500Y-37035109D01*
X30804661Y-37014193D01*
X30804661Y-37000001D01*
X30804661Y-37000000D01*
X30788651Y-36961349D01*
X30788650Y-36961348D01*
X30760045Y-36949500D01*
X30760043Y-36949499D01*
X30750000Y-36945339D01*
X30735809Y-36945339D01*
X30714891Y-36949500D01*
X29285109Y-36949500D01*
X29264191Y-36945339D01*
X29250000Y-36945339D01*
X29239957Y-36949499D01*
X29239955Y-36949500D01*
X29211349Y-36961348D01*
X29195339Y-37000001D01*
X29195339Y-37014193D01*
X29199500Y-37035109D01*
X29199500Y-102964892D01*
X29195339Y-102985812D01*
X29195339Y-103000000D01*
X15804661Y-103000000D01*
X15804660Y-102999998D01*
X15804661Y-102999998D01*
X15804661Y-102985812D01*
X15800500Y-102964892D01*
X15800500Y-37035109D01*
X15804661Y-37014193D01*
X15804661Y-37000001D01*
X15804661Y-37000000D01*
X15788651Y-36961349D01*
X15788650Y-36961348D01*
X15760045Y-36949500D01*
X15760043Y-36949499D01*
X15750000Y-36945339D01*
X15735809Y-36945339D01*
X15714891Y-36949500D01*
X14285109Y-36949500D01*
X14264191Y-36945339D01*
X14250000Y-36945339D01*
X14239957Y-36949499D01*
X14239955Y-36949500D01*
X14211349Y-36961348D01*
X14195339Y-37000001D01*
X14195339Y-37014193D01*
X14199500Y-37035109D01*
X14199500Y-102964892D01*
X14195339Y-102985812D01*
X14195339Y-103000000D01*
X50500Y-103000000D01*
X50500Y-20067765D01*
X5645788Y-20067765D01*
X5675412Y-20337014D01*
X5743928Y-20599090D01*
X5849869Y-20848389D01*
X5849870Y-20848390D01*
X5990982Y-21079610D01*
X6164255Y-21287820D01*
X6365998Y-21468582D01*
X6591910Y-21618044D01*
X6837176Y-21733020D01*
X7096569Y-21811060D01*
X7096572Y-21811060D01*
X7096574Y-21811061D01*
X7364557Y-21850500D01*
X7364561Y-21850500D01*
X7567631Y-21850500D01*
X7770156Y-21835677D01*
X7770160Y-21835676D01*
X7770161Y-21835676D01*
X7880665Y-21811060D01*
X8034553Y-21776780D01*
X8287558Y-21680014D01*
X8523777Y-21547441D01*
X8738177Y-21381888D01*
X8926186Y-21186881D01*
X9083799Y-20966579D01*
X9207656Y-20725675D01*
X9295118Y-20469305D01*
X9344319Y-20202933D01*
X9349259Y-20067765D01*
X65645788Y-20067765D01*
X65675412Y-20337014D01*
X65743928Y-20599090D01*
X65849869Y-20848389D01*
X65849870Y-20848390D01*
X65990982Y-21079610D01*
X66164255Y-21287820D01*
X66365998Y-21468582D01*
X66591910Y-21618044D01*
X66837176Y-21733020D01*
X67096569Y-21811060D01*
X67096572Y-21811060D01*
X67096574Y-21811061D01*
X67364557Y-21850500D01*
X67364561Y-21850500D01*
X67567631Y-21850500D01*
X67770156Y-21835677D01*
X67770160Y-21835676D01*
X67770161Y-21835676D01*
X67880665Y-21811060D01*
X68034553Y-21776780D01*
X68287558Y-21680014D01*
X68523777Y-21547441D01*
X68738177Y-21381888D01*
X68926186Y-21186881D01*
X69083799Y-20966579D01*
X69207656Y-20725675D01*
X69295118Y-20469305D01*
X69344319Y-20202933D01*
X69354212Y-19932235D01*
X69339338Y-19797058D01*
X69324587Y-19662985D01*
X69256071Y-19400909D01*
X69150130Y-19151610D01*
X69009018Y-18920390D01*
X68835745Y-18712180D01*
X68835741Y-18712177D01*
X68835740Y-18712175D01*
X68634012Y-18531427D01*
X68634002Y-18531418D01*
X68408090Y-18381956D01*
X68162824Y-18266980D01*
X68005392Y-18219615D01*
X67903425Y-18188938D01*
X67635442Y-18149500D01*
X67635439Y-18149500D01*
X67432369Y-18149500D01*
X67229839Y-18164323D01*
X67229838Y-18164323D01*
X66965456Y-18223217D01*
X66965441Y-18223222D01*
X66712441Y-18319986D01*
X66476229Y-18452555D01*
X66476225Y-18452557D01*
X66261818Y-18618116D01*
X66073815Y-18813117D01*
X66073810Y-18813123D01*
X65916203Y-19033417D01*
X65916196Y-19033427D01*
X65792343Y-19274324D01*
X65792342Y-19274327D01*
X65704883Y-19530689D01*
X65704880Y-19530702D01*
X65655681Y-19797058D01*
X65655680Y-19797069D01*
X65645788Y-20067765D01*
X9349259Y-20067765D01*
X9354212Y-19932235D01*
X9339338Y-19797058D01*
X9324587Y-19662985D01*
X9256071Y-19400909D01*
X9150130Y-19151610D01*
X9009018Y-18920390D01*
X8835745Y-18712180D01*
X8835741Y-18712177D01*
X8835740Y-18712175D01*
X8634012Y-18531427D01*
X8634002Y-18531418D01*
X8408090Y-18381956D01*
X8162824Y-18266980D01*
X8005392Y-18219615D01*
X7903425Y-18188938D01*
X7635442Y-18149500D01*
X7635439Y-18149500D01*
X7432369Y-18149500D01*
X7229839Y-18164323D01*
X7229838Y-18164323D01*
X6965456Y-18223217D01*
X6965441Y-18223222D01*
X6712441Y-18319986D01*
X6476229Y-18452555D01*
X6476225Y-18452557D01*
X6261818Y-18618116D01*
X6073815Y-18813117D01*
X6073810Y-18813123D01*
X5916203Y-19033417D01*
X5916196Y-19033427D01*
X5792343Y-19274324D01*
X5792342Y-19274327D01*
X5704883Y-19530689D01*
X5704880Y-19530702D01*
X5655681Y-19797058D01*
X5655680Y-19797069D01*
X5645788Y-20067765D01*
X50500Y-20067765D01*
X50500Y-3254001D01*
X504153Y-3254001D01*
X531550Y-3470868D01*
X531555Y-3470896D01*
X610029Y-3776533D01*
X610031Y-3776539D01*
X726207Y-4069965D01*
X878243Y-4346517D01*
X1063730Y-4601818D01*
X1063731Y-4601819D01*
X1279759Y-4831866D01*
X1279769Y-4831875D01*
X1522921Y-5033028D01*
X1522924Y-5033030D01*
X1789363Y-5202117D01*
X1789377Y-5202124D01*
X2074911Y-5336486D01*
X2074920Y-5336490D01*
X2375044Y-5434007D01*
X2375057Y-5434010D01*
X2685038Y-5493143D01*
X2685054Y-5493145D01*
X2921165Y-5507999D01*
X2921167Y-5508000D01*
X4146000Y-5508000D01*
X4146000Y-4600000D01*
X4654000Y-4600000D01*
X4654000Y-5508000D01*
X5878833Y-5508000D01*
X5878834Y-5507999D01*
X6114945Y-5493145D01*
X6114961Y-5493143D01*
X6424942Y-5434010D01*
X6424955Y-5434007D01*
X6725079Y-5336490D01*
X6725088Y-5336486D01*
X7010622Y-5202124D01*
X7010636Y-5202117D01*
X7277075Y-5033030D01*
X7277078Y-5033028D01*
X7520230Y-4831875D01*
X7520240Y-4831866D01*
X7736268Y-4601819D01*
X7736269Y-4601818D01*
X7921756Y-4346517D01*
X8073792Y-4069965D01*
X8189968Y-3776539D01*
X8189970Y-3776533D01*
X8268444Y-3470896D01*
X8268449Y-3470868D01*
X8295846Y-3254001D01*
X66704153Y-3254001D01*
X66731550Y-3470868D01*
X66731555Y-3470896D01*
X66810029Y-3776533D01*
X66810031Y-3776539D01*
X66926207Y-4069965D01*
X67078243Y-4346517D01*
X67263730Y-4601818D01*
X67263731Y-4601819D01*
X67479759Y-4831866D01*
X67479769Y-4831875D01*
X67722921Y-5033028D01*
X67722924Y-5033030D01*
X67989363Y-5202117D01*
X67989377Y-5202124D01*
X68274911Y-5336486D01*
X68274920Y-5336490D01*
X68575044Y-5434007D01*
X68575057Y-5434010D01*
X68885038Y-5493143D01*
X68885054Y-5493145D01*
X69121165Y-5507999D01*
X69121167Y-5508000D01*
X70346000Y-5508000D01*
X70346000Y-4600000D01*
X70854000Y-4600000D01*
X70854000Y-5508000D01*
X72078833Y-5508000D01*
X72078834Y-5507999D01*
X72314945Y-5493145D01*
X72314961Y-5493143D01*
X72624942Y-5434010D01*
X72624955Y-5434007D01*
X72925079Y-5336490D01*
X72925088Y-5336486D01*
X73210622Y-5202124D01*
X73210636Y-5202117D01*
X73477075Y-5033030D01*
X73477078Y-5033028D01*
X73720230Y-4831875D01*
X73720240Y-4831866D01*
X73936268Y-4601819D01*
X73936269Y-4601818D01*
X74121756Y-4346517D01*
X74273792Y-4069965D01*
X74389968Y-3776539D01*
X74389970Y-3776533D01*
X74468444Y-3470896D01*
X74468449Y-3470868D01*
X74495846Y-3254001D01*
X74495846Y-3254000D01*
X73584484Y-3254000D01*
X73585188Y-3251069D01*
X73604948Y-3000000D01*
X73585188Y-2748931D01*
X73584484Y-2746000D01*
X74495846Y-2746000D01*
X74495846Y-2745998D01*
X74468449Y-2529131D01*
X74468444Y-2529103D01*
X74389970Y-2223466D01*
X74389968Y-2223460D01*
X74273792Y-1930034D01*
X74121756Y-1653482D01*
X73936269Y-1398181D01*
X73936268Y-1398180D01*
X73720240Y-1168133D01*
X73720230Y-1168124D01*
X73477078Y-966971D01*
X73477075Y-966969D01*
X73210636Y-797882D01*
X73210622Y-797875D01*
X72925088Y-663513D01*
X72925079Y-663509D01*
X72624955Y-565992D01*
X72624942Y-565989D01*
X72314961Y-506856D01*
X72314945Y-506854D01*
X72078834Y-492000D01*
X70854000Y-492000D01*
X70854000Y-1400000D01*
X70346000Y-1400000D01*
X70346000Y-492000D01*
X69121166Y-492000D01*
X68885054Y-506854D01*
X68885038Y-506856D01*
X68575057Y-565989D01*
X68575044Y-565992D01*
X68274920Y-663509D01*
X68274911Y-663513D01*
X67989377Y-797875D01*
X67989363Y-797882D01*
X67722924Y-966969D01*
X67722921Y-966971D01*
X67479769Y-1168124D01*
X67479759Y-1168133D01*
X67263731Y-1398180D01*
X67263730Y-1398181D01*
X67078243Y-1653482D01*
X66926207Y-1930034D01*
X66810031Y-2223460D01*
X66810029Y-2223466D01*
X66731555Y-2529103D01*
X66731550Y-2529131D01*
X66704153Y-2745998D01*
X66704154Y-2746000D01*
X67615516Y-2746000D01*
X67614812Y-2748931D01*
X67595052Y-3000000D01*
X67614812Y-3251069D01*
X67615516Y-3254000D01*
X66704154Y-3254000D01*
X66704153Y-3254001D01*
X8295846Y-3254001D01*
X8295846Y-3254000D01*
X7384484Y-3254000D01*
X7385188Y-3251069D01*
X7404948Y-3000000D01*
X7385188Y-2748931D01*
X7384484Y-2746000D01*
X8295846Y-2746000D01*
X8295846Y-2745998D01*
X8268449Y-2529131D01*
X8268444Y-2529103D01*
X8189970Y-2223466D01*
X8189968Y-2223460D01*
X8073792Y-1930034D01*
X7921756Y-1653482D01*
X7736269Y-1398181D01*
X7736268Y-1398180D01*
X7520240Y-1168133D01*
X7520230Y-1168124D01*
X7277078Y-966971D01*
X7277075Y-966969D01*
X7010636Y-797882D01*
X7010622Y-797875D01*
X6725088Y-663513D01*
X6725079Y-663509D01*
X6424955Y-565992D01*
X6424942Y-565989D01*
X6114961Y-506856D01*
X6114945Y-506854D01*
X5878834Y-492000D01*
X4654000Y-492000D01*
X4654000Y-1400000D01*
X4146000Y-1400000D01*
X4146000Y-492000D01*
X2921166Y-492000D01*
X2685054Y-506854D01*
X2685038Y-506856D01*
X2375057Y-565989D01*
X2375044Y-565992D01*
X2074920Y-663509D01*
X2074911Y-663513D01*
X1789377Y-797875D01*
X1789363Y-797882D01*
X1522924Y-966969D01*
X1522921Y-966971D01*
X1279769Y-1168124D01*
X1279759Y-1168133D01*
X1063731Y-1398180D01*
X1063730Y-1398181D01*
X878243Y-1653482D01*
X726207Y-1930034D01*
X610031Y-2223460D01*
X610029Y-2223466D01*
X531555Y-2529103D01*
X531550Y-2529131D01*
X504153Y-2745998D01*
X504154Y-2746000D01*
X1415516Y-2746000D01*
X1414812Y-2748931D01*
X1395052Y-3000000D01*
X1414812Y-3251069D01*
X1415516Y-3254000D01*
X504154Y-3254000D01*
X504153Y-3254001D01*
X50500Y-3254001D01*
X50500Y-176500D01*
X70502Y-108379D01*
X124158Y-61886D01*
X176500Y-50500D01*
X74823500Y-50500D01*
X74891621Y-70502D01*
G37*
G04 #@! TD.AperFunction*
M02*
